Logistic Regression Practice
…
gats2_agg$Sickno <- gats2_agg$TOTAL- gats2_agg$Sickyes
```

---

```r
gats2_agg
```

```
#> # A tibble: 16 × 6
#>   GENDER EDUCATION                  TOTAL Sickyes preval…¹ Sickno
#>   <fct>  <fct>                      <int>   <dbl>    <dbl>  <dbl>
#> 1 Male   None                         308     267    0.867     41
#> 2 Male   Less than Primary School     880     775    0.881    105
#> 3 Male   Primary School              1168    1064    0.911    104
#> 4 Male   Less than Secondary School   522     478    0.916     44
#> 5 Male   Secondary School            2324    2162    0.930    162
#> 6 Male   High School                 1505    1429    0.950     76
#> # … with 10 more rows, and abbreviated variable name ¹​prevalence
```
…
