Model Fitting and Interpretation
…
---

class: middle

# Models with categorical explanatory variables

---

## Categorical predictor with 2 levels

.pull-left-narrow[
.small[

```
#> # A tibble: 692 × 3
#>    lhairHg assets_sc[,1] native_cat
#>      <dbl>         <dbl> <chr>     
#>  1  0.676         -0.837 Non-native
#>  2 -0.512         -0.280 Non-native
#>  3 -0.125          0.826 Non-native
#>  4  0.351         -1.27  Non-native
#>  5  0.662         -0.359 Non-native
#>  6  1.51           0.517 Non-native
#>  7  0.0553         0.533 Non-native
#>  8  0.768          1.29  Non-native
#>  9  0.431          1.30  Non-native
#> 10  1.35          -0.119 Non-native
#> 11  0.640         -0.246 Non-native
#> 12  0.0563         0.331 Non-native
#> 13  1.19          -1.15  Non-native
#> 14  0.0758         1.40  Non-native
#> 15  1.60           0.787 Non-native
#> 16  0.560         -0.246 Non-native
#> 17 -0.0932        -0.416 Non-native
#> 18 -0.237          0.921 Non-native
#> 19  0.585          0.154 Non-native
#> 20 -0.533         -1.15  Non-native
#> # … with 672 more rows
```
…
---

## Relationship between mercury and individual community

```r
com_fit <- linear_reg() %>%
  set_engine("lm") %>%
  fit(lhairHg ~ community, data = mercury) 

tidy(com_fit)
```

```
#> # A tibble: 23 × 5
#>    term                        estimate std.error stati…¹ p.value
#>    <chr>                          <dbl>     <dbl>   <dbl>   <dbl>
#>  1 (Intercept)                    0.617     0.117    5.29 1.65e-7
#>  2 communityBoca Isiriwe          1.12      0.339    3.30 1.00e-3
#>  3 communityBoca Manu             0.442     0.266    1.66 9.64e-2
#>  4 communityCaychihue            -1.07      0.273   -3.91 1.02e-4
#>  5 communityChoque               -0.755     0.239   -3.16 1.63e-3
#>  6 communityDiamante              0.907     0.212    4.27 2.21e-5
#>  7 communityHuepetuhe            -0.648     0.132   -4.89 1.24e-6
#>  8 communityIsla de los Valles    1.10      0.491    2.25 2.50e-2
#>  9 communityMasenawa              1.51      0.685    2.21 2.75e-2
#> 10 communityPalotoa Teparo        0.491     0.299    1.64 1.02e-1
#> # … with 13 more rows, and abbreviated variable name ¹​statistic
```

---

## Dummy or indicator variables

```
#> # A tibble: 23 × 5
#>    term                        estimate std.error stati…¹ p.value
#>    <chr>                          <dbl>     <dbl>   <dbl>   <dbl>
#>  1 (Intercept)                    0.617     0.117    5.29 1.65e-7
#>  2 communityBoca Isiriwe          1.12      0.339    3.30 1.00e-3
#>  3 communityBoca Manu             0.442     0.266    1.66 9.64e-2
#>  4 communityCaychihue            -1.07      0.273   -3.91 1.02e-4
#>  5 communityChoque               -0.755     0.239   -3.16 1.63e-3
#>  6 communityDiamante              0.907     0.212    4.27 2.21e-5
#>  7 communityHuepetuhe            -0.648     0.132   -4.89 1.24e-6
#>  8 communityIsla de los Valles    1.10      0.491    2.25 2.50e-2
#>  9 communityMasenawa              1.51      0.685    2.21 2.75e-2
#> 10 communityPalotoa Teparo        0.491     0.299    1.64 1.02e-1
#> # … with 13 more rows, and abbreviated variable name ¹​statistic
```
…
etc. for the other communities. Note Boca Colorado, the *referent community*, =0 for all vars

---

## Relationship between mercury and community

.small[

```
#> # A tibble: 23 × 5
#>    term                        estimate std.error stati…¹ p.value
#>    <chr>                          <dbl>     <dbl>   <dbl>   <dbl>
#>  1 (Intercept)                    0.617     0.117    5.29 1.65e-7
#>  2 communityBoca Isiriwe          1.12      0.339    3.30 1.00e-3
#>  3 communityBoca Manu             0.442     0.266    1.66 9.64e-2
#>  4 communityCaychihue            -1.07      0.273   -3.91 1.02e-4
#>  5 communityChoque               -0.755     0.239   -3.16 1.63e-3
#>  6 communityDiamante              0.907     0.212    4.27 2.21e-5
#>  7 communityHuepetuhe            -0.648     0.132   -4.89 1.24e-6
#>  8 communityIsla de los Valles    1.10      0.491    2.25 2.50e-2
#>  9 communityMasenawa              1.51      0.685    2.21 2.75e-2
#> 10 communityPalotoa Teparo        0.491     0.299    1.64 1.02e-1
#> # … with 13 more rows, and abbreviated variable name ¹​statistic
```
…
