Prediction and Overfitting
…
---

```r
print(bigmod,n=17)
```

```
#> # A tibble: 72 × 5
#>    term                 estimate std.error statistic p.value
#>    <chr>                   <dbl>     <dbl>     <dbl>   <dbl>
#>  1 (Intercept)           -1.55       0.696   -2.23    0.0258
#>  2 GENDERFemale          -8.10       4.30    -1.88    0.0595
#>  3 PROVINCETianjin       -1.08       0.775   -1.40    0.163 
#>  4 PROVINCEHebei          0.217      0.514    0.422   0.673 
#>  5 PROVINCEShanxi         0.230      0.514    0.447   0.655 
#>  6 PROVINCENeimenggu      0.127      0.547    0.232   0.817 
#>  7 PROVINCELiaoning       0.431      0.543    0.794   0.427 
#>  8 PROVINCEJilin          0.483      0.535    0.902   0.367 
#>  9 PROVINCEHeilongjiang  -0.250      0.543   -0.459   0.646 
#> 10 PROVINCEShanghai      -0.395      0.537   -0.737   0.461 
#> 11 PROVINCEJiangsu        0.422      0.509    0.829   0.407 
#> 12 PROVINCEZhejiang      -0.0430     0.542   -0.0793  0.937 
#> 13 PROVINCEAnhui          0.979      0.521    1.88    0.0603
#> 14 PROVINCEFujian         0.656      0.526    1.25    0.212 
#> 15 PROVINCEJiangxi       -0.611      0.572   -1.07    0.285 
#> 16 PROVINCEShangdong      0.310      0.513    0.604   0.546 
#> 17 PROVINCEHenan          0.568      0.512    1.11    0.267 
#> # … with 55 more rows
```
…
---

## Predict outcome on the validation dataset

```r
predict(trystop_m1, nottest_validation_data)
```

```
#> # A tibble: 468 × 1
#>   .pred_class
#>   <fct>      
#> 1 No         
#> 2 Yes        
#> 3 No         
#> 4 No         
#> 5 No         
#> 6 Yes        
#> # … with 462 more rows
```

---

## Predict probabilities on the validation dataset

```r
trystop_pred1 <- predict(trystop_m1, nottest_validation_data, type = "prob") %>%
  bind_cols(nottest_validation_data %>% select(TRYSTOP))

trystop_pred1
```

```
#> # A tibble: 468 × 3
#>   .pred_No .pred_Yes TRYSTOP
#>      <dbl>     <dbl> <fct>  
#> 1    0.711     0.289 Yes    
#> 2    0.206     0.794 Yes    
#> 3    0.538     0.462 Yes    
#> 4    0.549     0.451 No     
#> 5    0.803     0.197 No     
#> 6    0.479     0.521 No     
#> # … with 462 more rows
```

---

## A closer look at predictions

.pull-left-wide[

```r
trystop_pred1 %>%
  arrange(desc(.pred_Yes)) %>%
  print(n = 15)
```

```
#> # A tibble: 468 × 3
#>    .pred_No .pred_Yes TRYSTOP
#>       <dbl>     <dbl> <fct>  
#>  1 2.22e-16     1     Yes    
#>  2 1.03e- 7     1.00  Yes    
#>  3 1.30e- 1     0.870 No     
#>  4 1.32e- 1     0.868 Yes    
#>  5 1.35e- 1     0.865 Yes    
#>  6 1.74e- 1     0.826 Yes    
#>  7 2.03e- 1     0.797 No     
#>  8 2.06e- 1     0.794 Yes    
#>  9 2.46e- 1     0.754 Yes    
#> 10 2.55e- 1     0.745 Yes    
#> 11 2.57e- 1     0.743 Yes    
#> 12 2.70e- 1     0.730 Yes    
#> 13 2.73e- 1     0.727 Yes    
*#> 14 2.73e- 1     0.727 Yes    
*#> 15 2.74e- 1     0.726 No     
#> # … with 453 more rows
```
…
