Residual Analysis, Transformations, and Multiple Predictors
…
ggplot(hg_asset_fit_aug, mapping = aes(x = .fitted, y = .resid)) +
  geom_point(alpha = 0.5) +
  geom_hline(yintercept = 0, color = "gray", lty = "dashed") +
  labs(x = "Predicted mercury (ppm)", y = "Residuals")
```
]

.panel[.panel-name[Augment]

```r
hg_asset_fit_aug
```

```
#> # A tibble: 690 × 9
#>   .rownames hairHg assets…¹ .fitted .resid    .hat .sigma .cooksd
#>   <chr>      <dbl>    <dbl>   <dbl>  <dbl>   <dbl>  <dbl>   <dbl>
#> 1 1          1.97    -0.837    2.85 -0.888 0.00265   2.58 1.58e-4
#> 2 6          0.599   -0.280    2.44 -1.84  0.00161   2.58 4.11e-4
#> 3 7          0.883    0.826    1.62 -0.737 0.00241   2.58 9.89e-5
#> 4 8          1.42    -1.27     3.18 -1.76  0.00415   2.58 9.70e-4
#> 5 9          1.94    -0.359    2.50 -0.561 0.00170   2.58 4.03e-5
#> 6 12         4.53     0.517    1.85  2.68  0.00180   2.58 9.79e-4
#> # … with 684 more rows, 1 more variable: .std.resid <dbl>, and
#> #   abbreviated variable name ¹​assets_sc[,1]
```
…
